<svg id="likedin" xmlns="http://www.w3.org/2000/svg" width="65" height="65" viewBox="0 0 65 65">
  <defs>
    <style>
      .cls-1 {
        fill: #1e79b1;
      }

      .cls-2 {
        fill: #fff;
        fill-rule: evenodd;
      }
    </style>
  </defs>
  <circle id="Rectangle_4_copy_4" data-name="Rectangle 4 copy 4" class="cls-1" cx="32.5" cy="32.5" r="32.5"/>
  <path id="linkedin_logo" class="cls-2" d="M887.03,4558v-12.54h-3.94V4558h3.94Zm-1.97-18a1.962,1.962,0,1,0-.026,3.92A1.966,1.966,0,1,0,885.06,4540Zm5.909,18h3.94v-7.23a2.67,2.67,0,0,1,.156-0.98,2.108,2.108,0,0,1,2-1.46c1.425,0,2,1.1,2,2.72V4558H903v-7.44c0-3.69-1.944-5.38-4.536-5.38a4.642,4.642,0,0,0-3.914,2h-0.078l-0.181-1.72h-3.421c0.051,1.1.1,2.44,0.1,4V4558Z" transform="translate(-860 -4517)"/>
</svg>
