<?xml version="1.0" encoding="UTF-8" standalone="no"?>
<svg width="50px" height="50px" viewBox="0 0 50 50" version="1.1" xmlns="http://www.w3.org/2000/svg" xmlns:xlink="http://www.w3.org/1999/xlink" xmlns:sketch="http://www.bohemiancoding.com/sketch/ns">
    <!-- Generator: Sketch Beta 3.1.1 (8761) - http://www.bohemiancoding.com/sketch -->
    <title>stand-out</title>
    <desc>Created with Sketch Beta.</desc>
    <defs></defs>
    <g id="Page-1" stroke="none" stroke-width="1" fill="none" fill-rule="evenodd" sketch:type="MSPage">
        <g id="Artboard-1" sketch:type="MSArtboardGroup" transform="translate(-100.000000, -814.000000)" fill="#00C896">
            <g id="features" sketch:type="MSLayerGroup" transform="translate(100.000000, 814.000000)">
                <g id="stand-out" sketch:type="MSShapeGroup">
                    <path d="M47.9166667,27.0833333 L43.75,27.0833333 C42.5994068,27.0833333 41.6666667,26.1505932 41.6666667,25 C41.6666667,23.8494068 42.5994068,22.9166667 43.75,22.9166667 L47.9166667,22.9166667 C49.0672599,22.9166667 50,23.8494068 50,25 C50,26.1505932 49.0672599,27.0833333 47.9166667,27.0833333 L47.9166667,27.0833333 Z M38.5291667,11.9833333 C37.8123471,12.7001529 36.6501529,12.7001529 35.9333333,11.9833333 C35.2165138,11.2665138 35.2165138,10.1043196 35.9333333,9.3875 L38.5291667,6.79375 C38.9924955,6.33042114 39.6678119,6.1494706 40.3007309,6.31906071 C40.9336499,6.48865082 41.4280158,6.9830168 41.597606,7.61593576 C41.7671961,8.24885472 41.5862455,8.9241712 41.1229167,9.3875 L38.5291667,11.9833333 Z M25,35.4166667 C19.2470339,35.4166667 14.5833333,30.7529661 14.5833333,25 C14.5833333,19.2470339 19.2470339,14.5833333 25,14.5833333 C30.7529661,14.5833333 35.4166667,19.2470339 35.4166667,25 C35.4166667,27.7626718 34.3191996,30.4121917 32.3656956,32.3656956 C30.4121917,34.3191996 27.7626718,35.4166667 25,35.4166667 L25,35.4166667 Z M25,18.75 C21.5482203,18.75 18.75,21.5482203 18.75,25 C18.75,28.4517797 21.5482203,31.25 25,31.25 C28.4517797,31.25 31.25,28.4517797 31.25,25 C31.25,21.5482203 28.4517797,18.75 25,18.75 L25,18.75 Z M25,8.33333333 C23.8494068,8.33333333 22.9166667,7.40059323 22.9166667,6.25 L22.9166667,2.08333333 C22.9166667,0.932740105 23.8494068,0 25,0 C26.1505932,0 27.0833333,0.932740105 27.0833333,2.08333333 L27.0833333,6.25 C27.0833333,7.40059323 26.1505932,8.33333333 25,8.33333333 L25,8.33333333 Z M9.3875,43.20625 C8.9241712,43.6695789 8.24885472,43.8505294 7.61593576,43.6809393 C6.9830168,43.5113492 6.48865082,43.0169832 6.31906071,42.3840642 C6.1494706,41.7511453 6.33042114,41.0758288 6.79375,40.6125 L9.3875,38.0166667 C9.85120096,37.5529657 10.5270598,37.3718699 11.1604871,37.5415962 C11.7939144,37.7113225 12.2886775,38.2060856 12.4584038,38.8395129 C12.6281301,39.4729402 12.4470343,40.148799 11.9833333,40.6125 L9.3875,43.20625 Z M9.3875,11.9833333 L6.79375,9.3875 C6.07750572,8.67125572 6.07750572,7.50999428 6.79375,6.79375 C7.50999428,6.07750572 8.67125572,6.07750572 9.3875,6.79375 L11.9833333,9.3875 C12.4470343,9.85120096 12.6281301,10.5270598 12.4584038,11.1604871 C12.2886775,11.7939144 11.7939144,12.2886775 11.1604871,12.4584038 C10.5270598,12.6281301 9.85120096,12.4470343 9.3875,11.9833333 L9.3875,11.9833333 Z M8.33333333,25 C8.33333333,26.1505932 7.40059323,27.0833333 6.25,27.0833333 L2.08333333,27.0833333 C0.932740105,27.0833333 0,26.1505932 0,25 C0,23.8494068 0.932740105,22.9166667 2.08333333,22.9166667 L6.25,22.9166667 C7.40059323,22.9166667 8.33333333,23.8494068 8.33333333,25 L8.33333333,25 Z M25,41.6666667 C26.1505932,41.6666667 27.0833333,42.5994068 27.0833333,43.75 L27.0833333,47.9166667 C27.0833333,49.0672599 26.1505932,50 25,50 C23.8494068,50 22.9166667,49.0672599 22.9166667,47.9166667 L22.9166667,43.75 C22.9166667,42.5994068 23.8494068,41.6666667 25,41.6666667 L25,41.6666667 Z M40.6125,38.0166667 L43.20625,40.6125 C43.6695789,41.0758288 43.8505294,41.7511453 43.6809393,42.3840642 C43.5113492,43.0169832 43.0169832,43.5113492 42.3840642,43.6809393 C41.7511453,43.8505294 41.0758288,43.6695789 40.6125,43.20625 L38.0166667,40.6125 C37.2998471,39.8956804 37.2998471,38.7334862 38.0166667,38.0166667 C38.7334862,37.2998471 39.8956804,37.2998471 40.6125,38.0166667 L40.6125,38.0166667 Z"></path>
                </g>
            </g>
        </g>
    </g>
</svg>