<svg id="testimonial_default_avatar" data-name="testimonial default avatar" xmlns="http://www.w3.org/2000/svg" width="65" height="65" viewBox="0 0 65 65">
  <defs>
    <style>
      .cls-1 {
        fill: #eff0f4;
      }

      .cls-2 {
        fill: #878aa1;
        fill-rule: evenodd;
      }
    </style>
  </defs>
  <circle class="cls-1" cx="32.5" cy="32.5" r="32.5"/>
  <path id="_" data-name="“" class="cls-2" d="M122.006,2093.99v-9.43a9.924,9.924,0,0,1,.57-3.72,9.553,9.553,0,0,1,4.5-5.25,12.274,12.274,0,0,1,3.918-1.11v3.96c-1.52.52-3.029,1.29-3.588,2.31a7.689,7.689,0,0,0-.84,3.75h4.428v9.49h-8.988Zm13,0v-9.43a9.944,9.944,0,0,1,.57-3.72,9.553,9.553,0,0,1,4.5-5.25,12.287,12.287,0,0,1,3.919-1.11v3.96c-1.52.52-3.029,1.29-3.589,2.31a7.7,7.7,0,0,0-.84,3.75h4.429v9.49H135Z" transform="translate(-100 -2052)"/>
</svg>
