<?xml version="1.0" encoding="UTF-8" standalone="no"?>
<svg width="50px" height="50px" viewBox="0 0 50 50" version="1.1" xmlns="http://www.w3.org/2000/svg" xmlns:xlink="http://www.w3.org/1999/xlink" xmlns:sketch="http://www.bohemiancoding.com/sketch/ns">
    <!-- Generator: Sketch Beta 3.1.1 (8761) - http://www.bohemiancoding.com/sketch -->
    <title>time</title>
    <desc>Created with Sketch Beta.</desc>
    <defs></defs>
    <g id="Page-1" stroke="none" stroke-width="1" fill="none" fill-rule="evenodd" sketch:type="MSPage">
        <g id="Artboard-1" sketch:type="MSArtboardGroup" transform="translate(-480.000000, -814.000000)" fill="#00C896">
            <g id="features" sketch:type="MSLayerGroup" transform="translate(100.000000, 814.000000)">
                <g id="time" transform="translate(380.000000, 0.000000)" sketch:type="MSShapeGroup">
                    <path d="M25,50 C11.1928813,50 0,38.8071187 0,25 C0,11.1928813 11.1928813,0 25,0 C38.8071187,0 50,11.1928813 50,25 C50,38.8071187 38.8071187,50 25,50 L25,50 Z M25,4.16666667 C13.4940677,4.16666667 4.16666667,13.4940677 4.16666667,25 C4.16666667,36.5059323 13.4940677,45.8333333 25,45.8333333 C36.5059323,45.8333333 45.8333333,36.5059323 45.8333333,25 C45.8333333,13.4940677 36.5059323,4.16666667 25,4.16666667 L25,4.16666667 Z M29.6458333,32.7083333 L23.5416667,26.5854167 C23.1114101,26.1626277 22.8837384,25.5752346 22.9166667,24.9729167 L22.9166667,14.5833333 C22.9166667,13.4327401 23.8494068,12.5 25,12.5 C26.1505932,12.5 27.0833333,13.4327401 27.0833333,14.5833333 L27.0833333,24.0229167 L32.7083333,29.6479167 C33.5534441,30.4936027 33.5529777,31.8642643 32.7072917,32.709375 C31.8616056,33.5544857 30.4909441,33.5540194 29.6458333,32.7083333 L29.6458333,32.7083333 Z"></path>
                </g>
            </g>
        </g>
    </g>
</svg>